<svg width="83" height="48" viewBox="0 0 83 48" fill="none" xmlns="http://www.w3.org/2000/svg">
<path d="M49.9375 17.125C51.1042 17.125 52.3333 17.1458 53.625 17.1875C54.9167 17.2292 56.0833 17.3333 57.125 17.5C57.875 17.5 58.6667 18.7708 59.5 21.3125C60.3333 23.8542 61.3125 26.3125 62.4375 28.6875C62.7292 29.4792 63.1042 29.9583 63.5625 30.125C64.8125 30.5417 64.875 31 63.75 31.5C61.6667 31.9167 59.2917 31.9167 56.625 31.5C55.5833 31 54.7708 29.875 54.1875 28.125C53.6042 26.3333 52.7083 23.7083 51.5 20.25C51 19.3333 50.4167 18.7917 49.75 18.625C49.1667 18.5 48.8333 18.2292 48.75 17.8125C48.6667 17.3542 49.0625 17.125 49.9375 17.125ZM33.9375 17.125C35.1042 17.125 36.3333 17.1458 37.625 17.1875C38.9167 17.2292 40.0833 17.3333 41.125 17.5C41.875 17.5 42.6667 18.7708 43.5 21.3125C44.3333 23.8542 45.3125 26.3125 46.4375 28.6875C46.7292 29.4792 47.1042 29.9583 47.5625 30.125C48.8125 30.5417 48.875 31 47.75 31.5C45.6667 31.9167 43.2917 31.9167 40.625 31.5C39.5833 31 38.7708 29.875 38.1875 28.125C37.6042 26.3333 36.7083 23.7083 35.5 20.25C35 19.3333 34.4167 18.7917 33.75 18.625C33.1667 18.5 32.8333 18.2292 32.75 17.8125C32.6667 17.3542 33.0625 17.125 33.9375 17.125ZM0.75 35.9375C0.875 34.7708 1.35417 34.7083 2.1875 35.75C3.02083 36.7917 3.6875 37.3125 4.1875 37.3125L9.4375 37.5625H74.3125C75.5625 38.6875 76.9583 39.9792 78.5 41.4375C80.0833 42.8958 81.3958 44.3333 82.4375 45.75C81.8125 47.5 81.0833 47.7708 80.25 46.5625C79.4583 45.3125 78.75 44.6875 78.125 44.6875H9.4375C8.1875 43.6042 6.66667 42.2292 4.875 40.5625C3.125 38.8542 1.75 37.3125 0.75 35.9375ZM45 0.4375C47.875 0.4375 50.7292 0.416667 53.5625 0.375C56.4375 0.291667 59.3125 0.229167 62.1875 0.1875C62.4375 0.5625 62.4375 1.1875 62.1875 2.0625C61.5625 2.1875 59.6458 2.25 56.4375 2.25C53.2708 2.25 50.5 2.25 48.125 2.25C48.125 4.29167 48.125 6.08333 48.125 7.625C48.125 9.125 48.125 10.875 48.125 12.875C47.5 12.875 46.8542 12.9375 46.1875 13.0625C45.5208 13.1458 44.9583 13.0833 44.5 12.875C44.5 10.6667 44.4792 8.75 44.4375 7.125C44.4375 5.5 44.4375 3.5625 44.4375 1.3125C44.4375 0.8125 44.625 0.520833 45 0.4375Z" fill="black"/>
</svg>
